fir_filter/waves.vcd
$date
  2022-12-26T23:36:19.880762
$end
$version
  ROHD v0.4.1
$end
$comment
  Generated by ROHD - www.github.com/intel/rohd
$end
$timescale 1ps $end
$scope module FirFilter $end
  $var wire 1 s0 en $end
  $var wire 8 s1 inputVal $end
  $var wire 1 s2 resetB $end
  $var wire 1 s3 clk $end
  $var wire 8 s4 out $end
  $var wire 8 s5 z0 $end
  $var wire 8 s6 z3 $end
  $var wire 8 s7 z2 $end
  $var wire 8 s8 z1 $end
  $scope module sequential $end
    $var wire 1 s9 _in0_resetB $end
    $var wire 1 s10 _in1_en $end
    $var wire 8 s11 _in2_inputVal $end
    $var wire 8 s12 _in3_z0 $end
    $var wire 8 s13 _in4_z1 $end
    $var wire 8 s14 _in5_z2 $end
    $var wire 8 s15 _in6_____z0_multiply_const_0_add__z1_multiply_const_0_add__z2_multiply_const_0_add__z3_multiply_const_1 $end
    $var wire 8 s16 _in7_const_0 $end
    $var wire 8 s17 _in8_const_0 $end
    $var wire 8 s18 _in9_const_0 $end
    $var wire 8 s19 _in10_const_0 $end
    $var wire 8 s20 _in11_const_0 $end
    $var wire 8 s21 _in12_const_0 $end
    $var wire 1 s22 _clk0_clk $end
    $var wire 8 s23 _out13_z0 $end
    $var wire 8 s24 _out14_z1 $end
    $var wire 8 s25 _out15_z2 $end
    $var wire 8 s26 _out16_z3 $end
    $var wire 8 s27 _out17_out $end
  $upscope $end
$upscope $end
$enddefinitions $end
$dumpvars
0s0
b00000001 s1
0s2
0s3
bzzzzzzzz s4
bzzzzzzzz s5
bzzzzzzzz s6
bzzzzzzzz s7
bzzzzzzzz s8
0s9
0s10
b00000001 s11
bzzzzzzzz s12
bzzzzzzzz s13
bzzzzzzzz s14
bxxxxxxxx s15
b00000000 s16
b00000000 s17
b00000000 s18
b00000000 s19
b00000000 s20
b00000000 s21
0s22
bzzzzzzzz s23
bzzzzzzzz s24
bzzzzzzzz s25
bzzzzzzzz s26
bzzzzzzzz s27
$end
#2
1s3
1s22
b00000000 s15
b00000000 s5
b00000000 s12
b00000000 s23
b00000000 s8
b00000000 s13
b00000000 s24
b00000000 s7
b00000000 s14
b00000000 s25
b00000000 s6
b00000000 s26
b00000000 s4
b00000000 s27
#4
0s3
0s22
#5
1s0
1s10
#6
1s3
1s22
#8
0s3
0s22
#10
1s2
1s9
1s3
1s22
b00000001 s5
b00000001 s12
b00000001 s23
#12
0s3
0s22
#13
b00000010 s1
b00000010 s11
#14
1s3
1s22
b00000010 s5
b00000010 s12
b00000010 s23
b00000001 s8
b00000001 s13
b00000001 s24
#16
0s3
0s22
#17
b00000011 s1
b00000011 s11
#18
1s3
1s22
b00000011 s5
b00000011 s12
b00000011 s23
b00000010 s8
b00000010 s13
b00000010 s24
b00000001 s7
b00000001 s14
b00000001 s25
#20
0s3
0s22
#21
b00000100 s1
b00000100 s11
#22
1s3
1s22
b00000001 s15
b00000100 s5
b00000100 s12
b00000100 s23
b00000011 s8
b00000011 s13
b00000011 s24
b00000010 s7
b00000010 s14
b00000010 s25
b00000001 s6
b00000001 s26
#24
0s3
0s22
#25
b00000101 s1
b00000101 s11
#26
1s3
1s22
b00000010 s15
b00000101 s5
b00000101 s12
b00000101 s23
b00000100 s8
b00000100 s13
b00000100 s24
b00000011 s7
b00000011 s14
b00000011 s25
b00000010 s6
b00000010 s26
b00000001 s4
b00000001 s27
#28
0s3
0s22
#29
b00000110 s1
b00000110 s11
#30
1s3
1s22
b00000011 s15
b00000110 s5
b00000110 s12
b00000110 s23
b00000101 s8
b00000101 s13
b00000101 s24
b00000100 s7
b00000100 s14
b00000100 s25
b00000011 s6
b00000011 s26
b00000010 s4
b00000010 s27
#32
0s3
0s22
#33
b00000111 s1
b00000111 s11
#34
1s3
1s22
b00000100 s15
b00000111 s5
b00000111 s12
b00000111 s23
b00000110 s8
b00000110 s13
b00000110 s24
b00000101 s7
b00000101 s14
b00000101 s25
b00000100 s6
b00000100 s26
b00000011 s4
b00000011 s27
#36
0s3
0s22
#37
b00001000 s1
b00001000 s11
#38
1s3
1s22
b00000101 s15
b00001000 s5
b00001000 s12
b00001000 s23
b00000111 s8
b00000111 s13
b00000111 s24
b00000110 s7
b00000110 s14
b00000110 s25
b00000101 s6
b00000101 s26
b00000100 s4
b00000100 s27
#40
0s3
0s22
#41
b00001001 s1
b00001001 s11
#42
1s3
1s22
b00000110 s15
b00001001 s5
b00001001 s12
b00001001 s23
b00001000 s8
b00001000 s13
b00001000 s24
b00000111 s7
b00000111 s14
b00000111 s25
b00000110 s6
b00000110 s26
b00000101 s4
b00000101 s27
#44
0s3
0s22
#46
1s3
1s22
b00000111 s15
b00001001 s8
b00001001 s13
b00001001 s24
b00001000 s7
b00001000 s14
b00001000 s25
b00000111 s6
b00000111 s26
b00000110 s4
b00000110 s27
#48
0s3
0s22
#50
1s3
1s22
b00001000 s15
b00001001 s7
b00001001 s14
b00001001 s25
b00001000 s6
b00001000 s26
b00000111 s4
b00000111 s27
#52
0s3
0s22
#54
1s3
1s22
b00001001 s15
b00001001 s6
b00001001 s26
b00001000 s4
b00001000 s27
#56
0s3
0s22
#58
1s3
1s22
b00001001 s4
b00001001 s27
